First Project
…
QUESTION 4 Compute the median alcohol content and international bitterness unit for each state. Plot a bar chart to compare.

Looking at the bar charts it seems like Maine has the highest median ABV and IBU. We can draw more inferences by studying the bar plot.

#Median ABV and IBU per state
medABV_IBUperstate = BBmergedclean %>% group_by(State) %>% 
  summarise(MedianABV = median(ABV), MedianIBU = median(IBU)) #Get the Median ABV and IBU per state

## `summarise()` ungrouping output (override with `.groups` argument)

medABV_IBUperstate

## # A tibble: 50 x 3
##    State MedianABV MedianIBU
##    <chr>     <dbl>     <dbl>
##  1 " AK"    0.057       46  
##  2 " AL"    0.06        43  
##  3 " AR"    0.04        39  
##  4 " AZ"    0.0575      20.5
##  5 " CA"    0.058       42  
##  6 " CO"    0.065       40  
##  7 " CT"    0.061       29  
##  8 " DC"    0.059       47.5
##  9 " DE"    0.055       52  
## 10 " FL"    0.062       55  
## # ... with 40 more rows
…
